[{
  "_id": {
    "$oid": "5f63d993bf990b2749382a1e"
  },
  "date": {
    "$date": "2020-08-20T00:00:00Z"
  },
  "ticker": "ORCL",
  "quantity": 10,
  "price": 55.2599983215332,
  "state": "CREATED",
  "action": "BUY",
  "_class": "com.example.nh2restapi.entities.Trade"
},{
  "_id": {
    "$oid": "5f63d9b4bf990b2749382a1f"
  },
  "date": {
    "$date": "2020-08-23T00:00:00Z"
  },
  "ticker": "FB",
  "quantity": 5,
  "price": 280.82,
  "state": "CREATED",
  "action": "BUY",
  "_class": "com.example.nh2restapi.entities.Trade"
},{
  "_id": {
    "$oid": "5f63db17bf990b2749382a20"
  },
  "date": {
    "$date": "2020-08-24T00:00:00Z"
  },
  "ticker": "NFLX",
  "quantity": 5,
  "price": 490.57,
  "state": "CREATED",
  "action": "BUY",
  "_class": "com.example.nh2restapi.entities.Trade"
},{
  "_id": {
    "$oid": "5f63dd19bf990b2749382a21"
  },
  "date": {
    "$date": "2020-08-26T00:00:00Z"
  },
  "ticker": "NFLX",
  "quantity": 5,
  "price": 550.12,
  "state": "CREATED",
  "action": "SELL",
  "_class": "com.example.nh2restapi.entities.Trade"
},{
  "_id": {
    "$oid": "5f63dd1bbf990b2749382a22"
  },
  "date": {
    "$date": "2020-08-26T00:00:00Z"
  },
  "ticker": "FB",
  "quantity": 5,
  "price": 330.12,
  "state": "CREATED",
  "action": "SELL",
  "_class": "com.example.nh2restapi.entities.Trade"
},{
  "_id": {
    "$oid": "5f63e030de3bd52877fd8d60"
  },
  "date": {
    "$date": "2020-08-27T00:00:00Z"
  },
  "ticker": "AAPL",
  "quantity": 30,
  "price": 120.91000366210938,
  "state": "CREATED",
  "action": "BUY",
  "_class": "com.example.nh2restapi.entities.Trade"
},{
  "_id": {
    "$oid": "5f63e030de3bd52877fd8d61"
  },
  "date": {
    "$date": "2020-09-01T00:00:00Z"
  },
  "ticker": "AAPL",
  "quantity": 20,
  "price": 130.15,
  "state": "CREATED",
  "action": "SELL",
  "_class": "com.example.nh2restapi.entities.Trade"
},{
  "_id": {
    "$oid": "5f63e038de3bd52877fd8d62"
  },
  "date": {
    "$date": "2020-09-02T00:00:00Z"
  },
  "ticker": "ORCL",
  "quantity": 35,
  "price": 57.46,
  "state": "CREATED",
  "action": "BUY",
  "_class": "com.example.nh2restapi.entities.Trade"
},{
  "_id": {
    "$oid": "5f63e044de3bd52877fd8d63"
  },
  "date": {
    "$date": "2020-09-08T00:00:00Z"
  },
  "ticker": "TSLA",
  "quantity": 5,
  "price": 330.2,
  "state": "CREATED",
  "action": "BUY",
  "_class": "com.example.nh2restapi.entities.Trade"
}]