[{
  "_id": {
    "$oid": "5f610f33e292dd8c5ea7f973"
  },
  "cash": 4447.400016784668,
  "date": {
    "$date": "2020-08-20T20:12:52.209Z"
  },
  "stocks": [
    {
      "ticker": "ORCL",
      "quantity": 10,
      "price": 55.2599983215332
    }
  ],
  "total_value": 5000
},{
  "_id": {
    "$oid": "5f61147cf0dfce8b9318843e"
  },
  "cash": 4447.400016784668,
  "date": {
    "$date": "2020-08-21T20:22:36.049Z"
  },
  "stocks": [
    {
      "ticker": "ORCL",
      "quantity": 10,
      "price": 55.189998626708984
    }
  ],
  "total_value": 4999.300003051758
},{
  "_id": {
    "$oid": "5f61170ff0dfce8b9318843f"
  },
  "cash": 4447.400016784668,
  "date": {
    "$date": "2020-08-22T20:33:34.213Z"
  },
  "stocks": [
    {
      "ticker": "ORCL",
      "quantity": 10,
      "price": 56.0099983215332
    }
  ],
  "total_value": 5007.5
},{
  "_id": {
    "$oid": "5f6117c6f0dfce8b93188440"
  },
  "cash": 3043.299980163574,
  "date": {
    "$date": "2020-08-23T20:41:53.080Z"
  },
  "stocks": [
    {
      "ticker": "ORCL",
      "quantity": 10,
      "price": 56.09000015258789
    },
    {
      "ticker": "FB",
      "quantity": 5,
      "price": 280.82000732421875
    }
  ],
  "total_value": 5008.300018310547
},{
  "_id": {
    "$oid": "5f611955f0dfce8b93188441"
  },
  "cash": 590.4000671386721,
  "date": {
    "$date": "2020-08-24T20:48:26.239Z"
  },
  "stocks": [
    {
      "ticker": "ORCL",
      "quantity": 10,
      "price": 56.09000015258789
    },
    {
      "ticker": "FB",
      "quantity": 5,
      "price": 280.82000732421875
    },
    {
      "ticker": "NFLX",
      "quantity": 5,
      "price": 490.579986572265
    }
  ],
  "total_value": 5008.300018310547
},{
  "_id": {
    "$oid": "5f611dad6a1c2a8691afe911"
  },
  "cash": 590.4000671386721,
  "date": {
    "$date": "2020-08-25T21:01:47.313Z"
  },
  "stocks": [
    {
      "ticker": "ORCL",
      "quantity": 10,
      "price": 56.09000015258789
    },
    {
      "ticker": "FB",
      "quantity": 5,
      "price": 280.82000732421875
    },
    {
      "ticker": "NFLX",
      "quantity": 5,
      "price": 490.5799865722656
    }
  ],
  "total_value": 5008.300038146973
},{
  "_id": {
    "$oid": "5f611df76a1c2a8691afe912"
  },
  "cash": 4847.600231933594,
  "date": {
    "$date": "2020-08-26T21:10:11.767Z"
  },
  "stocks": [
    {
      "ticker": "ORCL",
      "quantity": 10,
      "price": 57.4900016784668
    }
  ],
  "total_value": 5422.500248718262
},{
  "_id": {
    "$oid": "5f6120be6a1c2a8691afe913"
  },
  "cash": 1097.3001678466799,
  "date": {
    "$date": "2020-08-27T21:17:48.524Z"
  },
  "stocks": [
    {
      "ticker": "ORCL",
      "quantity": 10,
      "price": 57.18000030517578
    },
    {
      "ticker": "AAPL",
      "quantity": 30,
      "price": 125.01000213623047
    }
  ],
  "total_value": 5419.400234985352
},{
  "_id": {
    "$oid": "5f6121db6a1c2a8691afe914"
  },
  "cash": 1097.3001678466799,
  "date": {
    "$date": "2020-08-28T21:19:37.719Z"
  },
  "stocks": [
    {
      "ticker": "ORCL",
      "quantity": 10,
      "price": 57.880001068115234
    },
    {
      "ticker": "AAPL",
      "quantity": 30,
      "price": 124.80750274658203
    }
  ],
  "total_value": 5420.325260925293
},{
  "_id": {
    "$oid": "5f6122276a1c2a8691afe915"
  },
  "cash": 1097.3001678466799,
  "date": {
    "$date": "2020-08-29T21:20:54.667Z"
  },
  "stocks": [
    {
      "ticker": "ORCL",
      "quantity": 10,
      "price": 57.220001220703125
    },
    {
      "ticker": "AAPL",
      "quantity": 30,
      "price": 129.0399932861328
    }
  ],
  "total_value": 5540.6999786376955
},{
  "_id": {
    "$oid": "5f6122d96a1c2a8691afe916"
  },
  "cash": 1097.3001678466799,
  "date": {
    "$date": "2020-08-30T21:23:51.688Z"
  },
  "stocks": [
    {
      "ticker": "ORCL",
      "quantity": 10,
      "price": 57.65999984741211
    },
    {
      "ticker": "AAPL",
      "quantity": 30,
      "price": 134.17999267578125
    }
  ],
  "total_value": 5699.2999465942385
},{
  "_id": {
    "$oid": "5f61232d6a1c2a8691afe917"
  },
  "cash": 1097.3001678466799,
  "date": {
    "$date": "2020-08-31T21:25:15.805Z"
  },
  "stocks": [
    {
      "ticker": "ORCL",
      "quantity": 10,
      "price": 60.939998626708984
    },
    {
      "ticker": "AAPL",
      "quantity": 30,
      "price": 115.54000091552734
    }
  ],
  "total_value": 5699.2999465942385
},{
  "_id": {
    "$oid": "5f6123ce6a1c2a8691afe919"
  },
  "cash": 3780.900021362305,
  "date": {
    "$date": "2020-09-01T21:28:10.375Z"
  },
  "stocks": [
    {
      "ticker": "ORCL",
      "quantity": 10,
      "price": 57.65999984741211
    },
    {
      "ticker": "AAPL",
      "quantity": 10,
      "price": 134.17999267578125
    }
  ],
  "total_value": 5699.2999465942385
},{
  "_id": {
    "$oid": "5f61244d6a1c2a8691afe91a"
  },
  "cash": 1714.8500640869142,
  "date": {
    "$date": "2020-09-02T21:33:44.810Z"
  },
  "stocks": [
    {
      "ticker": "ORCL",
      "quantity": 45,
      "price": 59.029998779296875
    },
    {
      "ticker": "AAPL",
      "quantity": 10,
      "price": 131.39999389648438
    }
  ],
  "total_value": 5685.199948120117
},{
  "_id": {
    "$oid": "5f6125d76a1c2a8691afe91b"
  },
  "cash": 1714.8500640869142,
  "date": {
    "$date": "2020-09-03T21:36:36.876Z"
  },
  "stocks": [
    {
      "ticker": "ORCL",
      "quantity": 45,
      "price": 57.099998474121094
    },
    {
      "ticker": "AAPL",
      "quantity": 10,
      "price": 120.87999725341797
    }
  ],
  "total_value": 5493.149967956543
},{
  "_id": {
    "$oid": "5f6126646a1c2a8691afe91c"
  },
  "cash": 1714.8500640869142,
  "date": {
    "$date": "2020-09-04T21:38:58.889Z"
  },
  "stocks": [
    {
      "ticker": "ORCL",
      "quantity": 45,
      "price": 57.099998474121094
    },
    {
      "ticker": "AAPL",
      "quantity": 10,
      "price": 120.87999725341797
    }
  ],
  "total_value": 5493.149967956543
},{
  "_id": {
    "$oid": "5f6126d46a1c2a8691afe91d"
  },
  "cash": 1714.8500640869142,
  "date": {
    "$date": "2020-09-05T21:40:50.708Z"
  },
  "stocks": [
    {
      "ticker": "ORCL",
      "quantity": 45,
      "price": 55.72999954223633
    },
    {
      "ticker": "AAPL",
      "quantity": 10,
      "price": 120.95999908447266
    }
  ],
  "total_value": 5432.300034332276
},{
  "_id": {
    "$oid": "5f6127176a1c2a8691afe91e"
  },
  "cash": 1714.8500640869142,
  "date": {
    "$date": "2020-09-06T21:41:57.674Z"
  },
  "stocks": [
    {
      "ticker": "ORCL",
      "quantity": 45,
      "price": 55.31999969482422
    },
    {
      "ticker": "AAPL",
      "quantity": 10,
      "price": 112.81999969482422
    }
  ],
  "total_value": 5332.450047302246
},{
  "_id": {
    "$oid": "5f61273b6a1c2a8691afe91f"
  },
  "cash": 1714.8500640869142,
  "date": {
    "$date": "2020-09-07T21:42:34.243Z"
  },
  "stocks": [
    {
      "ticker": "ORCL",
      "quantity": 45,
      "price": 55.31999969482422
    },
    {
      "ticker": "AAPL",
      "quantity": 10,
      "price": 112.81999969482422
    }
  ],
  "total_value": 5332.450047302246
},{
  "_id": {
    "$oid": "5f61279c6a1c2a8691afe920"
  },
  "cash": 63.80010681152362,
  "date": {
    "$date": "2020-09-08T21:44:26.621Z"
  },
  "stocks": [
    {
      "ticker": "ORCL",
      "quantity": 45,
      "price": 55.31999969482422
    },
    {
      "ticker": "AAPL",
      "quantity": 10,
      "price": 112.81999969482422
    },
    {
      "ticker": "TSLA",
      "quantity": 5,
      "price": 330.2099914550781
    }
  ],
  "total_value": 5332.450047302246
},{
  "_id": {
    "$oid": "5f61281e6a1c2a8691afe921"
  },
  "cash": 63.80010681152362,
  "date": {
    "$date": "2020-09-09T21:46:20.474Z"
  },
  "stocks": [
    {
      "ticker": "ORCL",
      "quantity": 45,
      "price": 55.31999969482422
    },
    {
      "ticker": "AAPL",
      "quantity": 10,
      "price": 112.81999969482422
    },
    {
      "ticker": "TSLA",
      "quantity": 5,
      "price": 330.2099914550781
    }
  ],
  "total_value": 5332.450047302246
},{
  "_id": {
    "$oid": "5f6128a66a1c2a8691afe922"
  },
  "cash": 63.80010681152362,
  "date": {
    "$date": "2020-09-10T21:48:36.524Z"
  },
  "stocks": [
    {
      "ticker": "ORCL",
      "quantity": 45,
      "price": 56.95000076293945
    },
    {
      "ticker": "AAPL",
      "quantity": 10,
      "price": 117.31999969482422
    },
    {
      "ticker": "TSLA",
      "quantity": 5,
      "price": 366.2799987792969
    }
  ],
  "total_value": 5631.150131988526
},{
  "_id": {
    "$oid": "5f6128d56a1c2a8691afe923"
  },
  "cash": 63.80010681152362,
  "date": {
    "$date": "2020-09-11T21:49:23.871Z"
  },
  "stocks": [
    {
      "ticker": "ORCL",
      "quantity": 45,
      "price": 57.33000183105469
    },
    {
      "ticker": "AAPL",
      "quantity": 10,
      "price": 113.48999786376953
    },
    {
      "ticker": "TSLA",
      "quantity": 5,
      "price": 371.3399963378906
    }
  ],
  "total_value": 5635.250149536133
},{
  "_id": {
    "$oid": "5f6129036a1c2a8691afe924"
  },
  "cash": 63.80010681152362,
  "date": {
    "$date": "2020-09-12T21:50:09.780Z"
  },
  "stocks": [
    {
      "ticker": "ORCL",
      "quantity": 45,
      "price": 57
    },
    {
      "ticker": "AAPL",
      "quantity": 10,
      "price": 112
    },
    {
      "ticker": "TSLA",
      "quantity": 5,
      "price": 372.7200012207031
    }
  ],
  "total_value": 5612.400112915039
},{
  "_id": {
    "$oid": "5f6129556a1c2a8691afe925"
  },
  "cash": 63.80010681152362,
  "date": {
    "$date": "2020-09-13T21:51:31.195Z"
  },
  "stocks": [
    {
      "ticker": "ORCL",
      "quantity": 45,
      "price": 59.459999084472656
    },
    {
      "ticker": "AAPL",
      "quantity": 10,
      "price": 115.36000061035156
    },
    {
      "ticker": "TSLA",
      "quantity": 5,
      "price": 419.6199951171875
    }
  ],
  "total_value": 5991.200047302246
},{
  "_id": {
    "$oid": "5f6129ac6a1c2a8691afe926"
  },
  "cash": 63.80010681152362,
  "date": {
    "$date": "2020-09-14T21:52:58.630Z"
  },
  "stocks": [
    {
      "ticker": "ORCL",
      "quantity": 45,
      "price": 59.459999084472656
    },
    {
      "ticker": "AAPL",
      "quantity": 10,
      "price": 115.36000061035156
    },
    {
      "ticker": "TSLA",
      "quantity": 5,
      "price": 419.6199951171875
    }
  ],
  "total_value": 5991.200047302246
},{
  "_id": {
    "$oid": "5f6129d96a1c2a8691afe927"
  },
  "cash": 63.80010681152362,
  "date": {
    "$date": "2020-09-15T21:53:43.500Z"
  },
  "stocks": [
    {
      "ticker": "ORCL",
      "quantity": 45,
      "price": 60.939998626708984
    },
    {
      "ticker": "AAPL",
      "quantity": 10,
      "price": 115.54000091552734
    },
    {
      "ticker": "TSLA",
      "quantity": 5,
      "price": 449.760009765625
    }
  ],
  "total_value": 6210.300102996826
}]